{
"__comment": "Designed by MasterianoX",
"textures": {
    "texture": "placeableitems:block/bottle_empty",
    "potion": "placeableitems:block/dragon_breath",
    "potion1": "placeableitems:block/dragon_breath1",
    "potion2": "placeableitems:block/dragon_breath2",
    "potion3": "placeableitems:block/dragon_breath3",
    "potion4": "placeableitems:block/dragon_breath4",
    "particle": "placeableitems:block/dragon_breath"
},
    "elements": [
{
    "from": [ 5.5, 0, 5.5 ],
    "to": [ 10.5, 1, 10.5 ],
    "rotation": { "origin": [ 8, 8, 8 ], "axis": "z", "angle": 0 },
    "faces": {
        "down":  { "uv": [ 0, 0, 5, 5 ], "texture": "#texture" },
        "up":    { "uv": [ 0, 0, 5, 5 ], "texture": "#texture" },
        "north": { "uv": [ 0, 0, 5, 1 ], "texture": "#texture" },
        "south": { "uv": [ 0, 4, 5, 5 ], "texture": "#texture" },
        "west":  { "uv": [ 0, 0, 1, 5 ], "rotation": 90, "texture": "#texture" },
        "east":  { "uv": [ 4, 0, 5, 5 ], "rotation": 90, "texture": "#texture" }
    }
},
{
    "from": [ 4.5, 1, 5.5 ],
    "to": [ 5.5, 5, 10.5 ],
    "rotation": { "origin": [ 8, 8, 8 ], "axis": "z", "angle": 0 },
    "faces": {
        "down":  { "uv": [ 0, 8, 5, 9 ], "rotation": 90, "texture": "#texture" },
        "up":    { "uv": [ 0, 5, 5, 6 ], "rotation": 90, "texture": "#texture" },
        "north": { "uv": [ 0, 5, 1, 9 ], "texture": "#texture" },
        "south": { "uv": [ 4, 5, 5, 9 ], "texture": "#texture" },
        "west":  { "uv": [ 0, 5, 5, 9 ], "texture": "#texture" },
        "east":  { "uv": [ 15, 0, 16, 1 ], "texture": "#texture" }
    }
},
{
    "from": [ 10.5, 1, 5.5 ],
    "to": [ 11.5, 5, 10.5 ],
    "rotation": { "origin": [ 8, 8, 8 ], "axis": "z", "angle": 0 },
    "faces": {
        "down":  { "uv": [ 0, 8, 5, 9 ], "rotation": 90, "texture": "#texture" },
        "up":    { "uv": [ 5, 5, 0, 6 ], "rotation": 90, "texture": "#texture" },
        "north": { "uv": [ 4, 5, 5, 9 ], "texture": "#texture" },
        "south": { "uv": [ 0, 5, 1, 9 ], "texture": "#texture" },
        "west":  { "uv": [ 15, 0, 16, 1 ], "texture": "#texture" },
        "east":  { "uv": [ 0, 5, 5, 9 ], "texture": "#texture" }
    }
},
{
    "from": [ 5.5, 1, 4.5 ],
    "to": [ 10.5, 5, 5.5 ],
    "rotation": { "origin": [ 8, 8, 8 ], "axis": "z", "angle": 0 },
    "faces": {
        "down":  { "uv": [ 0, 13, 5, 12 ], "texture": "#texture" },
        "up":    { "uv": [ 0, 9, 5, 10 ], "texture": "#texture" },
        "north": { "uv": [ 5, 9, 0, 13 ], "texture": "#texture" },
        "south": { "uv": [ 15, 0, 16, 1 ], "texture": "#texture" },
        "west":  { "uv": [ 0, 9, 1, 13 ], "texture": "#texture" },
        "east":  { "uv": [ 4, 9, 5, 13 ], "texture": "#texture" }
    }
},
{
    "from": [ 5.5, 1, 10.5 ],
    "to": [ 10.5, 5, 11.5 ],
    "rotation": { "origin": [ 8, 8, 8 ], "axis": "z", "angle": 0 },
    "faces": {
        "down":  { "uv": [ 5, 13, 0, 12 ], "texture": "#texture" },
        "up":    { "uv": [ 5, 9, 0, 10 ], "texture": "#texture" },
        "north": { "uv": [ 15, 0, 16, 1 ], "texture": "#texture" },
        "south": { "uv": [ 5, 9, 0, 13 ], "texture": "#texture" },
        "west":  { "uv": [ 4, 9, 5, 13 ], "texture": "#texture" },
        "east":  { "uv": [ 0, 9, 1, 13 ], "texture": "#texture" }
    }
},
{
    "from": [ 5.5, 5, 5.5 ],
    "to": [ 10.5, 6, 10.5 ],
    "rotation": { "origin": [ 8, 8, 8 ], "axis": "z", "angle": 0 },
    "faces": {
        "down":  { "uv": [ 15, 0, 16, 1 ], "texture": "#texture" },
        "up":    { "uv": [ 5, 0, 10, 5 ], "texture": "#texture" },
        "north": { "uv": [ 10, 0, 5, 1 ], "texture": "#texture" },
        "south": { "uv": [ 5, 4, 10, 5 ], "texture": "#texture" },
        "west":  { "uv": [ 5, 0, 6, 5 ], "rotation": 90, "texture": "#texture" },
        "east":  { "uv": [ 9, 0, 10, 5 ], "rotation": 90, "texture": "#texture" }
    }
},
{
    "from": [ 6.5, 6, 6.5 ],
    "to": [ 9.5, 12, 9.5 ],
    "rotation": { "origin": [ 8, 8, 8 ], "axis": "z", "angle": 0 },
    "faces": {
        "down":  { "uv": [ 15, 0, 16, 1 ], "texture": "#texture" },
        "up":    { "uv": [ 5, 5, 8, 8 ], "texture": "#texture" },
        "north": { "uv": [ 14, 0, 11, 6 ], "texture": "#texture" },
        "south": { "uv": [ 8, 10, 5, 16 ], "texture": "#texture" },
        "west":  { "uv": [ 5, 10, 8, 16 ], "texture": "#texture" },
        "east":  { "uv": [ 11, 0, 14, 6 ], "texture": "#texture" }
    }
},
{
    "from": [ 6.5, 10, 5.5 ],
    "to": [ 9.5, 11, 10.5 ],
    "rotation": { "origin": [ 8, 8, 8 ], "axis": "z", "angle": 0 },
    "faces": {
        "down":  { "uv": [ 13, 11, 16, 16 ], "texture": "#texture" },
        "up":    { "uv": [ 13, 11, 16, 16 ], "texture": "#texture" },
        "north": { "uv": [ 9, 7, 12, 8 ], "texture": "#texture" },
        "south": { "uv": [ 9, 7, 12, 8 ], "texture": "#texture" },
        "west":  { "uv": [ 8, 9, 13, 10 ], "texture": "#texture" },
        "east":  { "uv": [ 8, 9, 13, 10 ], "texture": "#texture" }
    }
},
{
    "from": [ 5.5, 10, 6.5 ],
    "to": [ 6.5, 11, 9.5 ],
    "rotation": { "origin": [ 8, 8, 8 ], "axis": "z", "angle": 0 },
    "faces": {
        "down":  { "uv": [ 13, 2, 14, 5 ], "texture": "#texture" },
        "up":    { "uv": [ 13, 2, 14, 5 ], "texture": "#texture" },
        "north": { "uv": [ 9, 7, 10, 8 ], "texture": "#texture" },
        "south": { "uv": [ 11, 7, 12, 8 ], "texture": "#texture" },
        "west":  { "uv": [ 9, 7, 12, 8 ], "texture": "#texture" },
        "east":  { "uv": [ 9, 7, 12, 8 ], "texture": "#texture" }
    }
},
{
    "from": [ 9.5, 10, 6.5 ],
    "to": [ 10.5, 11, 9.5 ],
    "rotation": { "origin": [ 8, 8, 8 ], "axis": "z", "angle": 0 },
    "faces": {
        "down":  { "uv": [ 13, 2, 14, 5 ], "texture": "#texture" },
        "up":    { "uv": [ 13, 2, 14, 5 ], "texture": "#texture" },
        "north": { "uv": [ 11, 2, 12, 3 ], "texture": "#texture" },
        "south": { "uv": [ 11, 4, 12, 5 ], "texture": "#texture" },
        "west":  { "uv": [ 9, 7, 12, 8 ], "texture": "#texture" },
        "east":  { "uv": [ 9, 7, 12, 8 ], "texture": "#texture" }
    }
},
{
    "from": [ 5.5, 1, 5.5 ],
    "to": [ 10.5, 2, 10.5 ],
    "rotation": { "origin": [ 8, 8, 8 ], "axis": "z", "angle": 0 },
    "faces": {
        "down":  { "uv": [ 0, 10, 10, 0 ], "texture": "#potion" },
        "up":    { "uv": [ 0, 0, 10, 10 ], "texture": "#potion" },
        "north": { "uv": [ 0, 0, 10, 2 ], "texture": "#potion" },
        "south": { "uv": [ 0, 8, 10, 10 ], "texture": "#potion" },
        "west":  { "uv": [ 0, 10, 2, 0 ], "rotation": 90, "texture": "#potion" },
        "east":  { "uv": [ 8, 0, 10, 10 ], "rotation": 90, "texture": "#potion" }
    }
},
{
    "from": [ 6.5, 5, 6.5 ],
    "to": [ 9.5, 6, 9.5 ],
    "rotation": { "origin": [ 8, 8, 8 ], "axis": "z", "angle": 0 },
    "faces": {
        "down":  { "uv": [ 2, 12, 8, 6 ], "texture": "#potion4" },
        "up":    { "uv": [ 2, 6, 8, 12 ], "texture": "#potion4" },
        "north": { "uv": [ 8, 6, 2, 8 ], "texture": "#potion4" },
        "south": { "uv": [ 2, 10, 8, 12 ], "texture": "#potion4" },
        "west":  { "uv": [ 2, 12, 4, 6 ], "rotation": 90, "texture": "#potion4" },
        "east":  { "uv": [ 6, 6, 8, 12 ], "rotation": 90, "texture": "#potion4" }
    }
},
{
    "from": [ 5.5, 2, 5.5 ],
    "to": [ 10.5, 3, 10.5 ],
    "rotation": { "origin": [ 8, 8, 8 ], "axis": "z", "angle": 0 },
    "faces": {
        "down":  { "uv": [ 6, 10, 16, 0 ], "texture": "#potion1" },
        "up":    { "uv": [ 6, 0, 16, 10 ], "texture": "#potion1" },
        "north": { "uv": [ 16, 0, 6, 2 ], "texture": "#potion1" },
        "south": { "uv": [ 6, 8, 16, 10 ], "texture": "#potion1" },
        "west":  { "uv": [ 6, 10, 8, 0 ], "rotation": 90, "texture": "#potion1" },
        "east":  { "uv": [ 14, 0, 16, 10 ], "rotation": 90, "texture": "#potion1" }
    }
},
{
    "from": [ 5.5, 3, 5.5 ],
    "to": [ 10.5, 4, 10.5 ],
    "rotation": { "origin": [ 8, 8, 8 ], "axis": "z", "angle": 0 },
    "faces": {
        "down":  { "uv": [ 0, 16, 10, 6 ], "texture": "#potion2" },
        "up":    { "uv": [ 0, 6, 10, 16 ], "texture": "#potion2" },
        "north": { "uv": [ 10, 6, 0, 8 ], "texture": "#potion2" },
        "south": { "uv": [ 0, 14, 10, 16 ], "texture": "#potion2" },
        "west":  { "uv": [ 0, 16, 2, 6 ], "rotation": 90, "texture": "#potion2" },
        "east":  { "uv": [ 8, 6, 10, 16 ], "rotation": 90, "texture": "#potion2" }
    }
},
{
    "from": [ 5.5, 4, 5.5 ],
    "to": [ 10.5, 5, 10.5 ],
    "rotation": { "origin": [ 8, 8, 8 ], "axis": "z", "angle": 0 },
    "faces": {
        "down":  { "uv": [ 6, 12, 16, 2 ], "texture": "#potion3" },
        "up":    { "uv": [ 6, 2, 16, 12 ], "texture": "#potion3" },
        "north": { "uv": [ 16, 2, 6, 4 ], "texture": "#potion3" },
        "south": { "uv": [ 6, 10, 16, 12 ], "texture": "#potion3" },
        "west":  { "uv": [ 6, 12, 8, 2 ], "rotation": 90, "texture": "#potion3" },
        "east":  { "uv": [ 14, 2, 16, 12 ], "rotation": 90, "texture": "#potion3" }
    }
}
]
}