{"variants": {"rotation=4": {"model": "placeableitems:block/beetroot_seeds", "rotation": {"y": 0}},
 "rotation=3": {"model": "placeableitems:block/beetroot_seeds", "rotation": {"y": 22.5}},
 "rotation=2": {"model": "placeableitems:block/beetroot_seeds", "rotation": {"y": 45}},
 "rotation=1": {"model": "placeableitems:block/beetroot_seeds", "rotation": {"y": 67.5}},
 "rotation=0": {"model": "placeableitems:block/beetroot_seeds", "rotation": {"y": 90}},
 "rotation=15": {"model": "placeableitems:block/beetroot_seeds", "rotation": {"y": 112.5}},
 "rotation=14": {"model": "placeableitems:block/beetroot_seeds", "rotation": {"y": 135}},
 "rotation=13": {"model": "placeableitems:block/beetroot_seeds", "rotation": {"y": 157.5}},
 "rotation=12": {"model": "placeableitems:block/beetroot_seeds", "rotation": {"y": 180}},
 "rotation=11": {"model": "placeableitems:block/beetroot_seeds", "rotation": {"y": 202.5}},
 "rotation=10": {"model": "placeableitems:block/beetroot_seeds", "rotation": {"y": 225}},
 "rotation=9": {"model": "placeableitems:block/beetroot_seeds", "rotation": {"y": 247.5}},
 "rotation=8": {"model": "placeableitems:block/beetroot_seeds", "rotation": {"y": 270}},
 "rotation=7": {"model": "placeableitems:block/beetroot_seeds", "rotation": {"y": 292.5}},
 "rotation=6": {"model": "placeableitems:block/beetroot_seeds", "rotation": {"y": 315}},
 "rotation=5": {"model": "placeableitems:block/beetroot_seeds", "rotation": {"y": 337.5}}}}}